<?xml version="1.0" encoding="UTF-8" standalone="no"?>
<svg
   xmlns:dc="http://purl.org/dc/elements/1.1/"
   xmlns:cc="http://creativecommons.org/ns#"
   xmlns:rdf="http://www.w3.org/1999/02/22-rdf-syntax-ns#"
   xmlns:svg="http://www.w3.org/2000/svg"
   xmlns="http://www.w3.org/2000/svg"
   xmlns:sodipodi="http://sodipodi.sourceforge.net/DTD/sodipodi-0.dtd"
   xmlns:inkscape="http://www.inkscape.org/namespaces/inkscape"
   version="1.1"
   x="0px"
   y="0px"
   width="100px"
   height="100px"
   viewBox="0 0 100 100"
   enable-background="new 0 0 100 100"
   xml:space="preserve"
   id="svg2"
   inkscape:version="0.91 r13725"
   sodipodi:docname="icon_settings.svg"><metadata
     id="metadata14"><rdf:RDF><cc:Work
         rdf:about=""><dc:format>image/svg+xml</dc:format><dc:type
           rdf:resource="http://purl.org/dc/dcmitype/StillImage" /></cc:Work></rdf:RDF></metadata><defs
     id="defs12" /><sodipodi:namedview
     pagecolor="#ffffff"
     bordercolor="#666666"
     borderopacity="1"
     objecttolerance="10"
     gridtolerance="10"
     guidetolerance="10"
     inkscape:pageopacity="0"
     inkscape:pageshadow="2"
     inkscape:window-width="1680"
     inkscape:window-height="1026"
     id="namedview10"
     showgrid="false"
     inkscape:zoom="4.72"
     inkscape:cx="-19.140146"
     inkscape:cy="40.450418"
     inkscape:window-x="0"
     inkscape:window-y="0"
     inkscape:window-maximized="1"
     inkscape:current-layer="svg2" /><g
     id="Captions"
     style="fill:#000000;fill-opacity:1" /><g
     id="Your_Icon"
     style="fill:#ffffff;fill-opacity:1"><path
       d="M56.452,54.774l6.297-1.147c0.017-1.813-0.124-3.616-0.415-5.388l-6.397-0.192c-0.444-2.078-1.15-4.098-2.102-6.003   l4.879-4.143c-0.879-1.571-1.896-3.064-3.042-4.47l-5.637,3.035c-1.401-1.559-3.016-2.957-4.829-4.149l2.15-6.025   c-0.769-0.457-1.562-0.889-2.386-1.284c-0.82-0.395-1.646-0.741-2.479-1.059l-3.365,5.447c-2.062-0.673-4.163-1.065-6.258-1.189   l-1.149-6.296c-1.813-0.02-3.614,0.12-5.385,0.411l-0.193,6.397c-2.081,0.444-4.101,1.15-6.008,2.104l-4.146-4.878   c-1.565,0.882-3.059,1.898-4.46,3.042l3.032,5.633c-1.559,1.401-2.961,3.022-4.153,4.836C8.22,38.676,6.158,37.94,4.38,37.304   c-0.454,0.774-0.885,1.562-1.28,2.382s-0.742,1.649-1.062,2.486c1.607,0.993,3.466,2.144,5.443,3.365   c-0.67,2.062-1.062,4.166-1.187,6.261l-6.293,1.149c-0.02,1.811,0.121,3.61,0.412,5.385l6.397,0.189   c0.447,2.085,1.156,4.107,2.107,6.009L4.04,68.674c0.883,1.568,1.896,3.062,3.046,4.466l5.63-3.035   c1.408,1.559,3.025,2.957,4.835,4.149l-2.146,6.025c0.765,0.451,1.556,0.882,2.376,1.274c0.823,0.398,1.653,0.748,2.492,1.062   l3.366-5.44c2.058,0.67,4.159,1.062,6.25,1.184l1.15,6.296c1.813,0.02,3.613-0.124,5.388-0.412l0.196-6.4   c2.078-0.444,4.094-1.15,5.999-2.104l4.143,4.875c1.568-0.875,3.062-1.892,4.467-3.035l-3.032-5.64   c1.556-1.401,2.95-3.016,4.143-4.829l6.025,2.153c0.454-0.771,0.889-1.565,1.284-2.385c0.392-0.817,0.738-1.65,1.059-2.487   l-5.443-3.365C55.937,58.966,56.328,56.868,56.452,54.774z M42.814,58.783c-3.039,6.319-10.622,8.979-16.941,5.937   c-6.319-3.035-8.979-10.619-5.937-16.938c3.038-6.319,10.622-8.979,16.938-5.94C43.193,44.881,45.854,52.464,42.814,58.783z"
       id="path6"
       style="fill:#ffffff;fill-opacity:1" /><path
       d="M93.942,35.007L100,32c-0.379-1.686-0.954-3.326-1.715-4.878l-6.61,1.435c-0.921-1.467-2.095-2.794-3.493-3.901l2.16-6.407   c-0.722-0.457-1.474-0.886-2.261-1.265c-0.791-0.379-1.592-0.699-2.401-0.977l-3.66,5.685c-1.738-0.398-3.506-0.489-5.228-0.29   l-3.006-6.058c-1.687,0.375-3.326,0.95-4.878,1.708l1.434,6.607c-1.47,0.918-2.803,2.091-3.917,3.492   c-2.255-0.761-4.474-1.506-6.407-2.159c-0.461,0.725-0.893,1.479-1.271,2.277c-0.379,0.78-0.695,1.574-0.974,2.378   c1.716,1.102,3.689,2.373,5.688,3.656c-0.408,1.748-0.496,3.522-0.297,5.254c-2.131,1.056-4.231,2.098-6.062,3.007   c0.376,1.683,0.948,3.319,1.706,4.871c1.996-0.435,4.283-0.931,6.606-1.435c0.925,1.48,2.104,2.816,3.516,3.935l-2.163,6.403   c0.723,0.458,1.471,0.883,2.265,1.262c0.784,0.379,1.584,0.699,2.389,0.98c1.104-1.716,2.368-3.689,3.659-5.692   c1.751,0.409,3.532,0.494,5.267,0.294l3,6.055c1.686-0.379,3.322-0.95,4.875-1.712c-0.435-1.993-0.932-4.283-1.435-6.61   c1.47-0.921,2.803-2.101,3.917-3.509l6.408,2.156c0.454-0.715,0.875-1.46,1.251-2.244c0.379-0.794,0.706-1.602,0.983-2.411   l-5.688-3.663C94.057,38.503,94.146,36.729,93.942,35.007z M85.052,39.917c-1.729,3.588-6.034,5.098-9.619,3.372   c-3.588-1.725-5.097-6.031-3.372-9.619c1.723-3.588,6.032-5.097,9.619-3.372C85.265,32.021,86.773,36.33,85.052,39.917z"
       id="path8"
       style="fill:#ffffff;fill-opacity:1" /></g></svg>